intercept,dob,bmi
255.05540999189418,5.2588851445872734e-08,-83.97879175520134
134.69273501757561,4.236648914488072e-08,-32.992159705545525
99.56860206792445,3.5890993975670386e-08,-18.768518537149784
89.78530007434786,3.284679089737689e-08,-14.38335957406748
85.66131252591535,3.1729552393264516e-08,-12.112339369900184
98.15672808433793,3.3357893853239385e-08,-15.912654085752123
92.89405870748091,3.344267104890092e-08,-13.058867948272722
87.56009002031672,3.2955036292139736e-08,-10.430710511503227
85.16310184985915,3.353534042246371e-08,-8.767035905116504
85.479985374875,3.373201524790849e-08,-8.405845431722817
80.74315034670282,3.2135302305879294e-08,-6.505581304283658
89.34516034280976,3.369134952789051e-08,-9.120029514032208
88.13743972516293,3.356333840532289e-08,-8.284658376219896
81.10402628036738,3.243712098011605e-08,-5.349843378346432
80.65711886267772,3.272549035213235e-08,-4.731978849709847
83.38402438335757,3.315267194379598e-08,-5.3654874127014995
84.9815182694617,3.272069037914986e-08,-5.865997757522225
89.63906834718661,3.353511792832726e-08,-7.19685694514896
84.75232770859627,3.2515038223449405e-08,-5.139315111926577
75.34636004326843,3.100649362581014e-08,-1.469643081072117
84.10028145742211,3.190307813163915e-08,-4.475925811995955
90.02409985811934,3.256759301626902e-08,-6.406696953079036
88.12192129888462,3.1882766222202246e-08,-5.561908533461077
76.41306515124808,2.9363194706799548e-08,-1.2001777252395436
81.29488660389768,2.9901609971622226e-08,-2.7766406649462363
76.7254450130161,2.9049496027496294e-08,-0.901304578094598
82.32932023619463,2.9831110402974164e-08,-2.6584522349968656
73.38286424999151,2.8588785011511022e-08,0.9252133041625661
71.69246429034472,2.8063714721568264e-08,1.7195215520430935
74.4745807607696,2.803503335073815e-08,0.8274076633308312
68.3511069681696,2.7108368528470045e-08,3.2636802318257825
64.7276106375243,2.648506073464369e-08,4.840892757109076
64.6615907395292,2.6433867264108513e-08,5.054314450979936
72.40852464382662,2.7634172592974093e-08,2.4939311081370397
73.64020793840444,2.726698550025346e-08,2.132199130260998
72.53539507460934,2.7102843991372517e-08,2.7460884028647436
81.48296745417016,2.815651566712508e-08,-0.34005605117232546
85.20150360201225,2.885160728354069e-08,-1.454757483687808
84.74760073731585,2.8687832949240824e-08,-1.1101880825484782
83.66539065654428,2.8378143210524342e-08,-0.5154686969965492
80.41234746988879,2.7754877595134107e-08,0.847784162585324
82.64323611976182,2.813427589347717e-08,0.24922605631659178
82.97185730356668,2.8242870693875826e-08,0.3376209633604348
77.76753758618504,2.7481186991316817e-08,2.444887748756841
77.22173534234516,2.7519510847390644e-08,2.9010632120089346
72.03390560414417,2.6445999260660487e-08,4.9117781482091925
65.78667252789825,2.5776149331661534e-08,7.487944195463763
67.6994878672839,2.5920128163593407e-08,6.965659581557126
64.14357996601012,2.5498734309282593e-08,8.466483860940713
59.92929072922149,2.491503368517082e-08,10.242186459614473
61.75094985932782,2.537939202769686e-08,9.858707982111852
65.05180883899314,2.60063435346592e-08,8.89197901868904
66.26257126089939,2.58223647979323e-08,8.555469996425037
71.32475057943192,2.6447279272086582e-08,6.905250455419502
75.0017090858965,2.6888842122616836e-08,5.739921065035398
67.85907220155433,2.5975844967817033e-08,8.606016041427448
74.52963114681557,2.686033289989576e-08,6.399097946769142
78.40671244571568,2.7195824174024187e-08,5.162771054241128
74.86659247939072,2.636735510124596e-08,6.596786629175102
65.32077641452234,2.5051823367522095e-08,10.368161775673968
58.67084375575594,2.397385890380822e-08,12.988321561133294
59.71143581735974,2.4140497289633777e-08,12.788485040703204
56.983989859028895,2.3894475028853897e-08,14.063985282162395
58.423896135114234,2.3450744779842506e-08,13.598465946143905
58.19337530792508,2.279980897232097e-08,13.73204352204464
56.75381493545299,2.2794877481007254e-08,14.530902819078996
58.07718357154878,2.2816251168449963e-08,14.238836350451384
59.691508935271926,2.2818242446315683e-08,13.80257474930166
61.5236206968938,2.3005764048617638e-08,13.371361350832599
53.58084011463405,2.1499123774565803e-08,16.474868834955906
48.647571625345435,2.074567161020991e-08,18.54539238731235
49.71743674242093,2.042214326542844e-08,18.291268756232363
47.77170312660966,1.9502052697432997e-08,19.10837883996232
47.05676254614961,1.9305064612134638e-08,19.591185886891996
41.436095895622,1.883572426022196e-08,21.999212419992546
30.86287278813741,1.734563045203836e-08,26.211701830448614
19.87526372838269,1.5611233695960765e-08,30.496381019591624
13.442743109691975,1.4170090524544662e-08,32.960162660713735
16.383285161346606,1.402799563626235e-08,32.03538095041402
16.890606186005286,1.425195135283298e-08,32.17980631337543
11.874430317351482,1.35758953313349e-08,34.30696414636569
1.971233652489886,1.196501413782429e-08,38.209646769145074
-9.892501216276486,1.0041506164720846e-08,42.879175676513235
-13.372706522359707,9.273005799475192e-09,44.37636433068011
-21.212772729146295,7.848755922492569e-09,47.54004980450159
-20.294220052482885,7.573005717114313e-09,47.42668575720322
-29.674792871783964,6.367353536831453e-09,51.29115811903881
-32.18933922834087,5.961794129379615e-09,52.697619937329186
-36.420417565837255,5.101418854614635e-09,54.56595624954325
-55.697434251732346,1.4300118576117128e-09,62.01115890417222
-60.30949520114942,4.908282271425955e-10,64.13637336656969
-63.678881727436135,1.736879092965727e-10,66.05569730177652
-60.13340196883411,8.802810099370081e-10,65.44912976589754
-50.816486990445696,1.3830858372400045e-09,62.601306332327326
-61.05323191187547,-1.6821745862224299e-09,66.67448842010644
-50.58572404076182,-2.994516663205384e-10,63.6705480659641
-51.674862622129666,4.869503415387237e-10,65.53275750636399
-34.108696835293614,5.880618568200011e-09,61.24577930181934
1.755236094849252,1.2860310137833883e-08,51.064285415194036
-5.567255242356126,1.49808950380017e-08,58.49740452479969
179.75446823506527,5.034746144689444e-08,13.234470459493082
